\begin{tikzpicture}
	\begin{pgfonlayer}{nodelayer}
		\node [style=none] (0) at (0, 6) {};
		\node [style=none] (1) at (0, 0) {};
		\node [style=none] (2) at (6, 0) {};
		\node [style=none] (3) at (3, -0.75) {$f(\lambda)$};
		\node [style=none] (4) at (-1.25, 3) {$g(\lambda)$};
		\node [style=none] (6) at (0.25, 3.25) {};
		\node [style=none] (7) at (0.75, 2.25) {};
		\node [style=none] (9) at (2.5, 1) {};
		\node [style=none] (10) at (3.25, 0.5) {};
		\node [style=none] (11) at (5.25, 0.75) {};
		\node [style=none] (12) at (1.75, 5.25) {};

		\node [style=blue dot] (14) at (0.5, 3) {};
		\node [style=blue dot] (16) at (0.75, 2.5) {};
		\node [style=blue dot] (13) at (1.25, 2.25) {};
		\node [style=blue dot] (15) at (1.75, 2.1) {};
		\node [style=blue dot] (17) at (2.25, 1.75) {};
		\node [style=blue dot] (18) at (2.65, 1.5) {};
		\node [style=blue dot] (19) at (2.75, 1) {};
		\node [style=blue dot] (20) at (3.25, 0.75) {};
	\end{pgfonlayer}
	\begin{pgfonlayer}{edgelayer}
		\draw (0.center) to (1.center);
		\draw (1.center) to (2.center);

		\draw [bend right, looseness=1.25, line width=1.5pt] (12.center) to (6.center);
		\draw [in=180, out=-90, looseness=0.75, draw={rgb,255: red,180; green,15; blue,32}, line width=1.5pt] (9.center) to (10.center);
		\draw [line width=1.5pt](10.center) to (11.center);
		\draw [in=90, out=0, looseness=0.75, draw={rgb,255: red,180; green,15; blue,32}, line width=1.5pt] (7.center) to (9.center);
		\draw [in=-165, out=-90, draw={rgb,255: red,180; green,15; blue,32}, line width=1.5pt] (6.center) to (7.center);
	\end{pgfonlayer}
\end{tikzpicture}
